{
    "description": "OneCMS default Habitat build trigger",
    "type": "jenkins",
    "method": "POST",
    "url": "http://jenkins.hab.tribalnova.com/view/OneCMS/job/OneCMS%20Default%20Habitat%20Build/buildWithParameters",
    "query": {
        "token": "ttpXkoy7NB5ZOoY6",
        "buildID": "%ID%",
        "habitatProject": "%HABITAT_PROJECT%",
        "origin": "%SERVER_URL%"
    },
    "payload": {}
}