{
  "grade": "6-12",
  "type": "epub",
  "toc": true,
  "annotations": true,
  "audio": {
    "onByDefault": true,
    "textHighlighting": {
      "onByDefault": false
    },
    "jumpTo": {
      "audioCursorTrail": false,
      "onByDefault": true
    }
  }
}